1 10 20
100 200 125
201 210 89
900 1000 174
1 1 1
1 2 2
1 3 8
2 2 2
3 3 8
89 89 31
90 91 93
34 689 145
10 100 119
100 1000 179
90 101 119
100 101 26
88 99 119
90 345 144
123 456 144
333 444 134
90 99 119
9 10 20
10 15 18
10 30 112
15 99 119
10 21 21
20 21 8
18 19 21
18 18 21
16 20 21
345 508 142
43 59 113
15 229 125
42 78 116
15 401 144
53 429 144
432 900 179
165 352 144
342 532 142
353 893 179
24 84 116
24 25 24
832 1001 179
12 45 112
30 33 107
33 34 27
89 95 106
99 100 26
99 351 144
1 20 21
2 20 21
50 150 122
12 34 112
34 56 113
45 67 113
56 78 116
67 89 116
78 90 111
13 56 113
23 58 113
234 358 144
123 124 109
45 90 116
33 44 110
44 55 113
55 66 113
66 77 116
77 88 111
88 99 119
99 111 114
43 89 116
73 95 116
12 89 116
425 566 142
9 1 20
23 1 21
902 769 179
20 19 21
10 9 20
100 1 119
643 458 142
92 90 93
89 91 93
91 89 93
50 60 113
60 50 113
99 88 119
88 77 111
77 66 116
66 55 113
55 44 113
44 33 110
33 22 112
22 11 21
